…
``` r
plot(ca)
```

<img src="vignettes/ext/pr/p4.png" width="356px" />

Having a cell analysis at hand, the next process to perform is to
compose this cell analysis to form a composed columnar format
data.frame. This is easily done as

``` r
compose_cells(ca)
#> # A tibble: 24 x 10
#>      row   col data_block value major_1 major_2 minor_1 major_row_right~
#>    <int> <int>      <dbl> <chr> <chr>   <chr>   <chr>   <chr>           
#>  1     2     1          1 5.1   setosa  Sepal.~ Species setosa          
#>  2     3     1          1 4.9   setosa  Sepal.~ Species setosa          
#>  3     4     1          1 4.7   setosa  Sepal.~ Species setosa          
#>  4     5     1          1 4.6   setosa  Sepal.~ Species setosa          
#>  5     6     1          1 5     setosa  Sepal.~ Species setosa          
#>  6     7     1          1 5.4   setosa  Sepal.~ Species setosa          
#>  7     2     2          1 3.5   setosa  Sepal.~ Species setosa          
#>  8     3     2          1 3     setosa  Sepal.~ Species setosa          
#>  9     4     2          1 3.2   setosa  Sepal.~ Species setosa          
#> 10     5     2          1 3.1   setosa  Sepal.~ Species setosa          
#> # ... with 14 more rows, and 2 more variables: major_col_top_1_1 <chr>,
#> #   minor_corner_topRight_1_1 <chr>
```
…
